<?xml version="1.0" encoding="UTF-8"?>
<!-- Created with Inkscape (http://www.inkscape.org/) -->
<svg version="1.1" viewBox="0 0 50 50" xmlns="http://www.w3.org/2000/svg" xmlns:xlink="http://www.w3.org/1999/xlink">
<defs>
<path id="mark1" d="m-20-1e3h40v100h-40z"/>
<path id="mark2" d="m-40-1e3h80v240h-80z"/>
<path id="mark3" d="m-40-1e3h80v300h-80z"/>
<path id="handh" d="m-50-600 50-50 50 50v800h-100z"/>
<g id="hands">
<path d="m-10-910 10-10 10 10 2 300h-24zm-3 520h26l7 690h-40z"/>
<path d="m0-620a120 120 0 0 1 0 240 120 120 0 0 1 0-240zm0 60a60 60 0 0 0 0 120 60 60 0 0 0 0-120z"/>
</g>
<g id="face1">
<use transform="rotate(6)" xlink:href="#mark1"/>
<use transform="rotate(12)" xlink:href="#mark1"/>
<use transform="rotate(18)" xlink:href="#mark1"/>
<use transform="rotate(24)" xlink:href="#mark1"/>
</g>
<g id="face2">
<use xlink:href="#face1"/>
<use transform="rotate(30)" xlink:href="#face1"/>
<use transform="rotate(60)" xlink:href="#face1"/>
<use xlink:href="#mark3"/>
<use transform="rotate(30)" xlink:href="#mark2"/>
<use transform="rotate(60)" xlink:href="#mark2"/>
</g>
<g id="face">
<use xlink:href="#face2"/>
<use transform="rotate(90)" xlink:href="#face2"/>
<use transform="rotate(180)" xlink:href="#face2"/>
<use transform="rotate(270)" xlink:href="#face2"/>
</g>
</defs>
<g transform="scale(0.25)">
<svg width="200" height="200" viewbox="0 0 200 200" xmlns="http://www.w3.org/2000/svg"><path d="
                M 0, 100
                C 0, 0 0, 0 100, 0
                S 200, 0 200, 100
                    200, 200 100, 200
                    0, 200 0, 100
" fill="#4682b4"></path></svg>
</g>
<g transform="translate(2.5 2.5) scale(0.9)">
<g transform="translate(0,-247)">
<g transform="matrix(.024414 0 0 .024414 25 272)">
<circle class="bg" r="1024" style="fill:#fff"/>
<use class="fc" width="100%" height="100%" style="fill:#000000" xlink:href="#face"/>
<use class="h1" transform="rotate(-55.5)" width="100%" height="100%" style="fill:#000000" xlink:href="#handh"/>
<use class="h2" transform="rotate(51.873 -11.863 -1.4264)" width="100%" height="100%" style="fill:#4682b4;stroke-width:33.751;stroke:#4682b4" xlink:href="#hands"/>
</g>
</g>
</g>
<style type="text/css">
.bg {stroke: none; fill: white;}
.fc {stroke: none; fill: black;}
.h1 {stroke: none; fill: black;}
.h2 {stroke: none; fill: #4682b4;}
</style>
</svg>
